{"timestamp":"2024-02-15T09:58:34.9642408+03:00","sequence":3231,"loggerClassName":"org.jboss.logging.Logger","loggerName":"io.quarkus.config","level":"WARN","message":"Unrecognized configuration key \"quarkus.quartz.clustered\" was provided; it will be ignored; verify that the dependency extension for this configuration is set or that you did not make a typo","threadName":"Quarkus Main Thread","threadId":281,"mdc":{},"ndc":"","hostName":"laptop-36vmd3l3","processName":"hindi-dev.jar","processId":5780}
{"timestamp":"2024-02-15T09:58:34.9642408+03:00","sequence":3232,"loggerClassName":"org.jboss.logging.Logger","loggerName":"io.quarkus.config","level":"WARN","message":"Unrecognized configuration key \"quarkus.quartz.instance-name\" was provided; it will be ignored; verify that the dependency extension for this configuration is set or that you did not make a typo","threadName":"Quarkus Main Thread","threadId":281,"mdc":{},"ndc":"","hostName":"laptop-36vmd3l3","processName":"hindi-dev.jar","processId":5780}
{"timestamp":"2024-02-15T09:58:34.965241+03:00","sequence":3233,"loggerClassName":"org.jboss.logging.Logger","loggerName":"io.quarkus.config","level":"WARN","message":"Unrecognized configuration key \"quarkus.quartz.store-type\" was provided; it will be ignored; verify that the dependency extension for this configuration is set or that you did not make a typo","threadName":"Quarkus Main Thread","threadId":281,"mdc":{},"ndc":"","hostName":"laptop-36vmd3l3","processName":"hindi-dev.jar","processId":5780}
{"timestamp":"2024-02-15T09:58:34.9666477+03:00","sequence":3234,"loggerClassName":"org.jboss.logging.Logger","loggerName":"io.quarkus.config","level":"WARN","message":"Unrecognized configuration key \"quarkus.quartz.start-mode\" was provided; it will be ignored; verify that the dependency extension for this configuration is set or that you did not make a typo","threadName":"Quarkus Main Thread","threadId":281,"mdc":{},"ndc":"","hostName":"laptop-36vmd3l3","processName":"hindi-dev.jar","processId":5780}
{"timestamp":"2024-02-15T09:58:34.9672391+03:00","sequence":3235,"loggerClassName":"org.jboss.logging.Logger","loggerName":"io.quarkus.config","level":"WARN","message":"Unrecognized configuration key \"quarkus.hibernate-orm.log.sql.pretty-print\" was provided; it will be ignored; verify that the dependency extension for this configuration is set or that you did not make a typo","threadName":"Quarkus Main Thread","threadId":281,"mdc":{},"ndc":"","hostName":"laptop-36vmd3l3","processName":"hindi-dev.jar","processId":5780}
{"timestamp":"2024-02-15T09:58:46.757364+03:00","sequence":3246,"loggerClassName":"org.jboss.logging.Logger","loggerName":"io.quarkus","level":"INFO","message":"hindi 0.0.1 on JVM (powered by Quarkus 3.7.1) started in 25.381s. Listening on: http://localhost:8080","threadName":"Quarkus Main Thread","threadId":281,"mdc":{},"ndc":"","hostName":"laptop-36vmd3l3","processName":"hindi-dev.jar","processId":5780}
{"timestamp":"2024-02-15T09:58:46.7687001+03:00","sequence":3248,"loggerClassName":"org.jboss.logging.Logger","loggerName":"io.quarkus","level":"INFO","message":"Profile dev activated. Live Coding activated.","threadName":"Quarkus Main Thread","threadId":281,"mdc":{},"ndc":"","hostName":"laptop-36vmd3l3","processName":"hindi-dev.jar","processId":5780}
{"timestamp":"2024-02-15T09:58:46.7743486+03:00","sequence":3250,"loggerClassName":"org.jboss.logging.Logger","loggerName":"io.quarkus","level":"INFO","message":"Installed features: [agroal, cdi, config-yaml, hibernate-orm, hibernate-orm-panache, hibernate-validator, jdbc-h2, narayana-jta, reactive-pg-client, resteasy, resteasy-client, resteasy-jackson, resteasy-mutiny, scheduler, security, smallrye-context-propagation, smallrye-fault-tolerance, smallrye-health, smallrye-jwt, smallrye-metrics, smallrye-openapi, swagger-ui, vertx]","threadName":"Quarkus Main Thread","threadId":281,"mdc":{},"ndc":"","hostName":"laptop-36vmd3l3","processName":"hindi-dev.jar","processId":5780}
{"timestamp":"2024-02-15T09:59:27.1201401+03:00","sequence":3252,"loggerClassName":"org.jboss.logging.Logger","loggerName":"io.quarkus.http.access-log","level":"INFO","message":"127.0.0.1 - - [15/Feb/2024:09:59:26 +0300] \"GET /swagger/index.html HTTP/1.1\" 200 2436","threadName":"vert.x-eventloop-thread-1","threadId":296,"mdc":{},"ndc":"","hostName":"laptop-36vmd3l3","processName":"hindi-dev.jar","processId":5780}
{"timestamp":"2024-02-15T09:59:27.1301379+03:00","sequence":3253,"loggerClassName":"org.jboss.logging.Logger","loggerName":"io.quarkus.http.access-log","level":"INFO","message":"127.0.0.1 - - [15/Feb/2024:09:59:27 +0300] \"GET /swagger/index.html HTTP/1.1\" 200 2436","threadName":"vert.x-eventloop-thread-1","threadId":296,"mdc":{},"ndc":"","hostName":"laptop-36vmd3l3","processName":"hindi-dev.jar","processId":5780}
{"timestamp":"2024-02-15T09:59:27.2431386+03:00","sequence":3254,"loggerClassName":"org.jboss.logging.Logger","loggerName":"io.quarkus.http.access-log","level":"INFO","message":"127.0.0.1 - - [15/Feb/2024:09:59:27 +0300] \"GET /swagger/swagger-ui.css HTTP/1.1\" 200 152082","threadName":"vert.x-eventloop-thread-1","threadId":296,"mdc":{},"ndc":"","hostName":"laptop-36vmd3l3","processName":"hindi-dev.jar","processId":5780}
{"timestamp":"2024-02-15T09:59:27.2496731+03:00","sequence":3255,"loggerClassName":"org.jboss.logging.Logger","loggerName":"io.quarkus.http.access-log","level":"INFO","message":"127.0.0.1 - - [15/Feb/2024:09:59:27 +0300] \"GET /swagger/theme-feeling-blue.css HTTP/1.1\" 200 33496","threadName":"vert.x-eventloop-thread-0","threadId":295,"mdc":{},"ndc":"","hostName":"laptop-36vmd3l3","processName":"hindi-dev.jar","processId":5780}
{"timestamp":"2024-02-15T09:59:27.2631394+03:00","sequence":3256,"loggerClassName":"org.jboss.logging.Logger","loggerName":"io.quarkus.http.access-log","level":"INFO","message":"127.0.0.1 - - [15/Feb/2024:09:59:27 +0300] \"GET /swagger/style.css HTTP/1.1\" 200 2094","threadName":"vert.x-eventloop-thread-1","threadId":296,"mdc":{},"ndc":"","hostName":"laptop-36vmd3l3","processName":"hindi-dev.jar","processId":5780}
{"timestamp":"2024-02-15T09:59:27.296262+03:00","sequence":3257,"loggerClassName":"org.jboss.logging.Logger","loggerName":"io.quarkus.http.access-log","level":"INFO","message":"127.0.0.1 - - [15/Feb/2024:09:59:27 +0300] \"GET /swagger/swagger-ui-standalone-preset.js HTTP/1.1\" 200 230640","threadName":"vert.x-eventloop-thread-0","threadId":295,"mdc":{},"ndc":"","hostName":"laptop-36vmd3l3","processName":"hindi-dev.jar","processId":5780}
{"timestamp":"2024-02-15T09:59:27.3311361+03:00","sequence":3258,"loggerClassName":"org.jboss.logging.Logger","loggerName":"io.quarkus.http.access-log","level":"INFO","message":"127.0.0.1 - - [15/Feb/2024:09:59:27 +0300] \"GET /swagger/swagger-ui-bundle.js HTTP/1.1\" 200 1398526","threadName":"vert.x-eventloop-thread-1","threadId":296,"mdc":{},"ndc":"","hostName":"laptop-36vmd3l3","processName":"hindi-dev.jar","processId":5780}
{"timestamp":"2024-02-15T09:59:27.9678508+03:00","sequence":3259,"loggerClassName":"org.jboss.logging.Logger","loggerName":"io.quarkus.http.access-log","level":"INFO","message":"127.0.0.1 - - [15/Feb/2024:09:59:27 +0300] \"GET /swagger/logo.png HTTP/1.1\" 200 44746","threadName":"vert.x-eventloop-thread-0","threadId":295,"mdc":{},"ndc":"","hostName":"laptop-36vmd3l3","processName":"hindi-dev.jar","processId":5780}
{"timestamp":"2024-02-15T09:59:28.1278473+03:00","sequence":3260,"loggerClassName":"org.jboss.logging.Logger","loggerName":"io.quarkus.http.access-log","level":"INFO","message":"127.0.0.1 - - [15/Feb/2024:09:59:28 +0300] \"GET /swagger/favicon.ico HTTP/1.1\" 200 4286","threadName":"vert.x-eventloop-thread-0","threadId":295,"mdc":{},"ndc":"","hostName":"laptop-36vmd3l3","processName":"hindi-dev.jar","processId":5780}
{"timestamp":"2024-02-15T09:59:28.2408421+03:00","sequence":3261,"loggerClassName":"org.jboss.logging.Logger","loggerName":"io.quarkus.http.access-log","level":"INFO","message":"127.0.0.1 - - [15/Feb/2024:09:59:28 +0300] \"GET /swagger/favicon.ico HTTP/1.1\" 200 4286","threadName":"vert.x-eventloop-thread-0","threadId":295,"mdc":{},"ndc":"","hostName":"laptop-36vmd3l3","processName":"hindi-dev.jar","processId":5780}
{"timestamp":"2024-02-15T09:59:28.5518359+03:00","sequence":3262,"loggerClassName":"org.jboss.logging.Logger","loggerName":"io.quarkus.http.access-log","level":"INFO","message":"127.0.0.1 - - [15/Feb/2024:09:59:28 +0300] \"GET /q/openapi HTTP/1.1\" 200 45168","threadName":"vert.x-eventloop-thread-1","threadId":296,"mdc":{},"ndc":"","hostName":"laptop-36vmd3l3","processName":"hindi-dev.jar","processId":5780}
