{"timestamp":"2024-02-15T10:01:47.7085261+03:00","sequence":3051,"loggerClassName":"org.jboss.logging.Logger","loggerName":"io.quarkus.config","level":"WARN","message":"Unrecognized configuration key \"quarkus.quartz.clustered\" was provided; it will be ignored; verify that the dependency extension for this configuration is set or that you did not make a typo","threadName":"Quarkus Main Thread","threadId":268,"mdc":{},"ndc":"","hostName":"laptop-36vmd3l3","processName":"hindi-dev.jar","processId":13608}
{"timestamp":"2024-02-15T10:01:47.7095287+03:00","sequence":3052,"loggerClassName":"org.jboss.logging.Logger","loggerName":"io.quarkus.config","level":"WARN","message":"Unrecognized configuration key \"quarkus.quartz.instance-name\" was provided; it will be ignored; verify that the dependency extension for this configuration is set or that you did not make a typo","threadName":"Quarkus Main Thread","threadId":268,"mdc":{},"ndc":"","hostName":"laptop-36vmd3l3","processName":"hindi-dev.jar","processId":13608}
{"timestamp":"2024-02-15T10:01:47.710528+03:00","sequence":3053,"loggerClassName":"org.jboss.logging.Logger","loggerName":"io.quarkus.config","level":"WARN","message":"Unrecognized configuration key \"quarkus.quartz.store-type\" was provided; it will be ignored; verify that the dependency extension for this configuration is set or that you did not make a typo","threadName":"Quarkus Main Thread","threadId":268,"mdc":{},"ndc":"","hostName":"laptop-36vmd3l3","processName":"hindi-dev.jar","processId":13608}
{"timestamp":"2024-02-15T10:01:47.710528+03:00","sequence":3054,"loggerClassName":"org.jboss.logging.Logger","loggerName":"io.quarkus.config","level":"WARN","message":"Unrecognized configuration key \"quarkus.quartz.start-mode\" was provided; it will be ignored; verify that the dependency extension for this configuration is set or that you did not make a typo","threadName":"Quarkus Main Thread","threadId":268,"mdc":{},"ndc":"","hostName":"laptop-36vmd3l3","processName":"hindi-dev.jar","processId":13608}
{"timestamp":"2024-02-15T10:01:47.7115273+03:00","sequence":3055,"loggerClassName":"org.jboss.logging.Logger","loggerName":"io.quarkus.config","level":"WARN","message":"Unrecognized configuration key \"quarkus.hibernate-orm.log.sql.pretty-print\" was provided; it will be ignored; verify that the dependency extension for this configuration is set or that you did not make a typo","threadName":"Quarkus Main Thread","threadId":268,"mdc":{},"ndc":"","hostName":"laptop-36vmd3l3","processName":"hindi-dev.jar","processId":13608}
{"timestamp":"2024-02-15T10:02:04.6233945+03:00","sequence":3066,"loggerClassName":"org.jboss.logging.Logger","loggerName":"io.quarkus","level":"INFO","message":"hindi 0.0.1 on JVM (powered by Quarkus 3.7.1) started in 29.862s. Listening on: http://localhost:8080","threadName":"Quarkus Main Thread","threadId":268,"mdc":{},"ndc":"","hostName":"laptop-36vmd3l3","processName":"hindi-dev.jar","processId":13608}
{"timestamp":"2024-02-15T10:02:04.6420574+03:00","sequence":3068,"loggerClassName":"org.jboss.logging.Logger","loggerName":"io.quarkus","level":"INFO","message":"Profile dev activated. Live Coding activated.","threadName":"Quarkus Main Thread","threadId":268,"mdc":{},"ndc":"","hostName":"laptop-36vmd3l3","processName":"hindi-dev.jar","processId":13608}
{"timestamp":"2024-02-15T10:02:04.6490526+03:00","sequence":3070,"loggerClassName":"org.jboss.logging.Logger","loggerName":"io.quarkus","level":"INFO","message":"Installed features: [agroal, cache, cdi, config-yaml, hibernate-orm, hibernate-orm-panache, hibernate-validator, jdbc-h2, narayana-jta, reactive-pg-client, resteasy, resteasy-client, resteasy-jackson, resteasy-mutiny, scheduler, security, smallrye-context-propagation, smallrye-fault-tolerance, smallrye-health, smallrye-jwt, smallrye-metrics, smallrye-openapi, swagger-ui, vertx]","threadName":"Quarkus Main Thread","threadId":268,"mdc":{},"ndc":"","hostName":"laptop-36vmd3l3","processName":"hindi-dev.jar","processId":13608}
{"timestamp":"2024-02-15T10:02:08.2350232+03:00","sequence":3072,"loggerClassName":"org.jboss.logging.Logger","loggerName":"io.quarkus.http.access-log","level":"INFO","message":"127.0.0.1 - - [15/Feb/2024:10:02:08 +0300] \"POST /api/v1/movies-panache HTTP/1.1\" 200 560","threadName":"executor-thread-2","threadId":290,"mdc":{},"ndc":"","hostName":"laptop-36vmd3l3","processName":"hindi-dev.jar","processId":13608}
{"timestamp":"2024-02-15T10:12:04.075942+03:00","sequence":3073,"loggerClassName":"org.jboss.logging.Logger","loggerName":"io.quarkus.deployment.dev.filesystem.StaticFileManager","level":"INFO","message":"Ignoring module-info.java in dev mode, set the `quarkus.live-reload.ignore-module-info` property to `false` in your project descriptor (`pom.xml` or `build.gradle`) to disable this behavior.","threadName":"vert.x-worker-thread-2","threadId":289,"mdc":{},"ndc":"","hostName":"laptop-36vmd3l3","processName":"hindi-dev.jar","processId":13608}
{"timestamp":"2024-02-15T10:12:07.4154873+03:00","sequence":3074,"loggerClassName":"org.jboss.logging.Logger","loggerName":"io.quarkus.deployment.dev.RuntimeUpdatesProcessor","level":"INFO","message":"Restarting quarkus due to changes in CacheClearer.class, MyTestService.class.","threadName":"vert.x-worker-thread-2","threadId":289,"mdc":{},"ndc":"","hostName":"laptop-36vmd3l3","processName":"hindi-dev.jar","processId":13608}
{"timestamp":"2024-02-15T10:12:07.8501991+03:00","sequence":3077,"loggerClassName":"org.jboss.logging.Logger","loggerName":"io.quarkus","level":"INFO","message":"hindi stopped in 0.424s","threadName":"Quarkus Main Thread","threadId":268,"mdc":{},"ndc":"","hostName":"laptop-36vmd3l3","processName":"hindi-dev.jar","processId":13608}
