{"timestamp":"2024-02-10T13:05:54.5530947+03:00","sequence":3172,"loggerClassName":"org.jboss.logging.Logger","loggerName":"io.quarkus","level":"INFO","message":"hindi 0.0.1 on JVM (powered by Quarkus 3.7.1) started in 7.704s. Listening on: http://localhost:8080","threadName":"Quarkus Main Thread","threadId":764,"mdc":{},"ndc":"","hostName":"laptop-36vmd3l3","processName":"hindi-dev.jar","processId":18632}
{"timestamp":"2024-02-10T13:05:54.5620407+03:00","sequence":3174,"loggerClassName":"org.jboss.logging.Logger","loggerName":"io.quarkus","level":"INFO","message":"Profile dev activated. Live Coding activated.","threadName":"Quarkus Main Thread","threadId":764,"mdc":{},"ndc":"","hostName":"laptop-36vmd3l3","processName":"hindi-dev.jar","processId":18632}
{"timestamp":"2024-02-10T13:05:54.5670451+03:00","sequence":3176,"loggerClassName":"org.jboss.logging.Logger","loggerName":"io.quarkus","level":"INFO","message":"Installed features: [agroal, cdi, config-yaml, hibernate-orm, hibernate-orm-panache, jdbc-h2, narayana-jta, resteasy, resteasy-jackson, scheduler, security, smallrye-context-propagation, smallrye-health, smallrye-jwt, smallrye-metrics, smallrye-openapi, swagger-ui, vertx]","threadName":"Quarkus Main Thread","threadId":764,"mdc":{},"ndc":"","hostName":"laptop-36vmd3l3","processName":"hindi-dev.jar","processId":18632}
{"timestamp":"2024-02-10T13:05:54.5710404+03:00","sequence":3178,"loggerClassName":"org.jboss.logging.Logger","loggerName":"io.quarkus.deployment.dev.RuntimeUpdatesProcessor","level":"INFO","message":"Live reload total time: 16.624s ","threadName":"vert.x-worker-thread-4","threadId":261,"mdc":{},"ndc":"","hostName":"laptop-36vmd3l3","processName":"hindi-dev.jar","processId":18632}
{"timestamp":"2024-02-10T13:05:54.6080418+03:00","sequence":3180,"loggerClassName":"org.jboss.logging.Logger","loggerName":"io.quarkus.http.access-log","level":"INFO","message":"127.0.0.1 - - [10/Feb/2024:13:05:54 +0300] \"GET /swagger/index.html HTTP/1.1\" 200 2436","threadName":"vert.x-eventloop-thread-0","threadId":251,"mdc":{},"ndc":"","hostName":"laptop-36vmd3l3","processName":"hindi-dev.jar","processId":18632}
{"timestamp":"2024-02-10T13:05:54.6180414+03:00","sequence":3181,"loggerClassName":"org.jboss.logging.Logger","loggerName":"io.quarkus.http.access-log","level":"INFO","message":"127.0.0.1 - - [10/Feb/2024:13:05:54 +0300] \"GET /swagger/index.html HTTP/1.1\" 200 2436","threadName":"vert.x-eventloop-thread-0","threadId":251,"mdc":{},"ndc":"","hostName":"laptop-36vmd3l3","processName":"hindi-dev.jar","processId":18632}
{"timestamp":"2024-02-10T13:05:54.9860457+03:00","sequence":3182,"loggerClassName":"org.jboss.logging.Logger","loggerName":"io.quarkus.http.access-log","level":"INFO","message":"127.0.0.1 - - [10/Feb/2024:13:05:54 +0300] \"GET /swagger/swagger-ui.css HTTP/1.1\" 200 152082","threadName":"vert.x-eventloop-thread-0","threadId":251,"mdc":{},"ndc":"","hostName":"laptop-36vmd3l3","processName":"hindi-dev.jar","processId":18632}
{"timestamp":"2024-02-10T13:05:55.0110439+03:00","sequence":3183,"loggerClassName":"org.jboss.logging.Logger","loggerName":"io.quarkus.http.access-log","level":"INFO","message":"127.0.0.1 - - [10/Feb/2024:13:05:55 +0300] \"GET /swagger/theme-feeling-blue.css HTTP/1.1\" 200 33496","threadName":"vert.x-eventloop-thread-0","threadId":251,"mdc":{},"ndc":"","hostName":"laptop-36vmd3l3","processName":"hindi-dev.jar","processId":18632}
{"timestamp":"2024-02-10T13:05:55.0230441+03:00","sequence":3184,"loggerClassName":"org.jboss.logging.Logger","loggerName":"io.quarkus.http.access-log","level":"INFO","message":"127.0.0.1 - - [10/Feb/2024:13:05:55 +0300] \"GET /swagger/style.css HTTP/1.1\" 200 2094","threadName":"vert.x-eventloop-thread-0","threadId":251,"mdc":{},"ndc":"","hostName":"laptop-36vmd3l3","processName":"hindi-dev.jar","processId":18632}
{"timestamp":"2024-02-10T13:05:55.0640487+03:00","sequence":3185,"loggerClassName":"org.jboss.logging.Logger","loggerName":"io.quarkus.http.access-log","level":"INFO","message":"127.0.0.1 - - [10/Feb/2024:13:05:55 +0300] \"GET /swagger/swagger-ui-bundle.js HTTP/1.1\" 200 1398526","threadName":"vert.x-eventloop-thread-0","threadId":251,"mdc":{},"ndc":"","hostName":"laptop-36vmd3l3","processName":"hindi-dev.jar","processId":18632}
{"timestamp":"2024-02-10T13:05:55.1010448+03:00","sequence":3186,"loggerClassName":"org.jboss.logging.Logger","loggerName":"io.quarkus.http.access-log","level":"INFO","message":"127.0.0.1 - - [10/Feb/2024:13:05:55 +0300] \"GET /swagger/swagger-ui-standalone-preset.js HTTP/1.1\" 200 230640","threadName":"vert.x-eventloop-thread-0","threadId":251,"mdc":{},"ndc":"","hostName":"laptop-36vmd3l3","processName":"hindi-dev.jar","processId":18632}
{"timestamp":"2024-02-10T13:05:55.4691711+03:00","sequence":3187,"loggerClassName":"org.jboss.logging.Logger","loggerName":"io.quarkus.http.access-log","level":"INFO","message":"127.0.0.1 - - [10/Feb/2024:13:05:55 +0300] \"GET /swagger/logo.png HTTP/1.1\" 200 44746","threadName":"vert.x-eventloop-thread-0","threadId":251,"mdc":{},"ndc":"","hostName":"laptop-36vmd3l3","processName":"hindi-dev.jar","processId":18632}
{"timestamp":"2024-02-10T13:05:55.5220434+03:00","sequence":3188,"loggerClassName":"org.jboss.logging.Logger","loggerName":"io.quarkus.http.access-log","level":"INFO","message":"127.0.0.1 - - [10/Feb/2024:13:05:55 +0300] \"GET /q/openapi HTTP/1.1\" 200 24525","threadName":"vert.x-eventloop-thread-1","threadId":252,"mdc":{},"ndc":"","hostName":"laptop-36vmd3l3","processName":"hindi-dev.jar","processId":18632}
{"timestamp":"2024-02-10T13:05:55.6608763+03:00","sequence":3189,"loggerClassName":"org.jboss.logging.Logger","loggerName":"io.quarkus.http.access-log","level":"INFO","message":"127.0.0.1 - - [10/Feb/2024:13:05:55 +0300] \"GET /swagger/favicon.ico HTTP/1.1\" 200 4286","threadName":"vert.x-eventloop-thread-1","threadId":252,"mdc":{},"ndc":"","hostName":"laptop-36vmd3l3","processName":"hindi-dev.jar","processId":18632}
{"timestamp":"2024-02-10T13:05:57.5030839+03:00","sequence":3190,"loggerClassName":"org.jboss.logging.Logger","loggerName":"io.quarkus.http.access-log","level":"INFO","message":"127.0.0.1 - - [10/Feb/2024:13:05:57 +0300] \"GET /swagger/favicon.ico HTTP/1.1\" 200 4286","threadName":"vert.x-eventloop-thread-1","threadId":252,"mdc":{},"ndc":"","hostName":"laptop-36vmd3l3","processName":"hindi-dev.jar","processId":18632}
